<svg xmlns="http://www.w3.org/2000/svg" viewBox="0 0 20.101 23.537">
  <defs>
    <style>
      .cls-1 {
        fill: #bcbccb;
      }
    </style>
  </defs>
  <g id="Gruppe_516" data-name="Gruppe 516" transform="translate(11987.139 9301.044)">
    <path id="Pfad_359" data-name="Pfad 359" class="cls-1" d="M4416.422,459.446v4.662l9.992,5.8,10.107-5.8v-7.137l-10.107,5.826-7.754-4.582Z" transform="translate(-16403.561 -9747.411)"/>
    <path id="Pfad_360" data-name="Pfad 360" class="cls-1" d="M4436.527,415.208l-10.108-5.884-9.992,5.884v7.427l2.3-1.4,7.69-4.457,3.9,2.156Z" transform="translate(-16403.566 -9710.367)"/>
  </g>
</svg>
